<?xml version="1.0" encoding="utf-8"?>
<!-- Generator: Adobe Illustrator 17.0.0, SVG Export Plug-In . SVG Version: 6.00 Build 0)  -->
<!DOCTYPE svg PUBLIC "-//W3C//DTD SVG 1.1//EN" "http://www.w3.org/Graphics/SVG/1.1/DTD/svg11.dtd">
<svg version="1.1" id="Layer_1" xmlns="http://www.w3.org/2000/svg" xmlns:xlink="http://www.w3.org/1999/xlink" x="0px" y="0px"
	 width="695.853px" height="694.286px" viewBox="0 0 695.853 694.286" enable-background="new 0 0 695.853 694.286"
	 xml:space="preserve">
<g>
	<path fill="#939393" d="M681.746,0H14.107C6.316,0,0,6.316,0,14.107v666.072c0,7.791,6.316,14.107,14.107,14.107h667.64
		c7.791,0,14.107-6.316,14.107-14.107V14.107C695.853,6.316,689.537,0,681.746,0z M367.76,116.589
		c13.828-16.184,37.143-28.257,56.426-29.031c2.454,22.424-6.549,44.968-19.923,61.158c-13.378,16.199-35.33,28.785-56.823,27.12
		C344.513,153.855,355.366,130.916,367.76,116.589z M287.422,617.635h-9.725v-74.488h9.725V617.635z M333.285,618.851
		c-19.781,0-33.486-15.362-33.486-37.907c0-23.651,14.588-39.123,34.479-39.123c20.447,0,33.6,15.583,33.6,37.797
		C367.878,605.146,352.294,618.851,333.285,618.851z M395.612,618.851c-7.183,0-15.029-2.211-19.009-4.863l2.542-8.068
		c4.311,2.762,10.501,4.863,17.129,4.863c9.835,0,15.584-5.194,15.584-12.71c0-6.851-3.98-10.941-14.036-14.698
		c-12.156-4.421-19.671-10.83-19.671-21.219c0-11.605,9.615-20.224,24.092-20.224c7.515,0,13.15,1.767,16.357,3.647l-2.652,7.847
		c-2.321-1.438-7.294-3.536-14.036-3.536c-10.17,0-14.036,6.078-14.036,11.161c0,6.963,4.531,10.389,14.808,14.367
		c12.598,4.863,18.898,10.941,18.898,21.883C421.584,608.793,413.183,618.851,395.612,618.851z M477.365,423.033
		c-15.965,23.334-32.537,46.581-58.636,47.068c-25.646,0.469-33.893-15.212-63.218-15.212c-29.315,0-38.475,14.725-62.755,15.681
		c-25.196,0.956-44.383-25.236-60.48-48.48c-32.891-47.555-58.029-134.381-24.277-192.989c16.766-29.105,46.735-47.533,79.26-48.008
		c24.739-0.472,48.092,16.643,63.215,16.643c15.114,0,43.492-20.583,73.324-17.562c12.49,0.521,47.546,5.044,70.056,37.997
		c-1.81,1.125-41.827,24.422-41.392,72.884c0.536,57.964,50.854,77.256,51.409,77.502
		C503.445,369.913,495.833,396.046,477.365,423.033z"/>
	<path fill="#939393" d="M333.947,549.667c-16.026,0-23.982,14.81-23.982,31.056c0,16.024,8.621,30.281,23.871,30.281
		c15.253,0,23.871-14.036,23.871-30.944C357.708,565.139,349.973,549.667,333.947,549.667z"/>
</g>
</svg>
