<?xml version="1.0" encoding="utf-8"?>
<!-- Generator: Adobe Illustrator 17.0.0, SVG Export Plug-In . SVG Version: 6.00 Build 0)  -->
<!DOCTYPE svg PUBLIC "-//W3C//DTD SVG 1.1//EN" "http://www.w3.org/Graphics/SVG/1.1/DTD/svg11.dtd">
<svg version="1.1" id="Layer_1" xmlns="http://www.w3.org/2000/svg" xmlns:xlink="http://www.w3.org/1999/xlink" x="0px" y="0px"
	 width="695.853px" height="694.286px" viewBox="0 0 695.853 694.286" enable-background="new 0 0 695.853 694.286"
	 xml:space="preserve">
<path fill="#E8C653" d="M695.853,680.179c0,7.791-6.316,14.107-14.107,14.107H14.107C6.316,694.286,0,687.97,0,680.179V14.107
	C0,6.316,6.316,0,14.107,0h667.64c7.791,0,14.107,6.316,14.107,14.107V680.179z"/>
<path fill="#FFFFFF" d="M536.214,313.888c-4.227-26.324-21.392-48.435-72.238-69.053c-17.663-8.117-37.354-13.929-43.222-27.315
	c-2.083-7.79-2.36-12.178-1.042-16.893c3.784-15.303,22.051-20.074,36.529-15.686c9.325,3.125,18.152,10.311,23.475,21.775
	c24.9-16.124,24.849-16.017,42.235-27.098c-6.365-9.869-9.763-14.423-13.929-18.645c-14.976-16.727-35.381-25.342-68.016-24.683
	l-16.999,2.199c-16.289,4.116-31.814,12.667-40.917,24.13c-27.315,30.993-19.525,85.236,13.713,107.559
	c32.745,24.577,80.848,30.168,86.992,53.15c5.978,28.135-20.678,37.244-47.172,34.008c-19.525-4.061-30.385-13.985-42.125-32.03
	c-21.609,12.505-21.609,12.505-43.826,25.282c5.268,11.519,10.804,16.732,19.636,26.711
	c41.798,42.397,146.393,40.313,165.153-23.858C535.223,351.238,540.275,336.543,536.214,313.888L536.214,313.888z M320.105,139.687
	h-53.971l-0.221,139.534c0,29.675,1.535,56.879-3.291,65.218c-7.896,16.4-28.357,14.367-37.681,11.187
	c-9.491-4.665-14.317-11.297-19.908-20.673c-1.535-2.692-2.687-4.775-3.074-4.937l-43.881,26.873
	c7.297,14.976,18.046,27.974,31.814,36.419c20.567,12.344,48.209,16.128,77.119,9.491c18.815-5.481,35.05-16.833,43.549-34.114
	c12.289-22.655,9.652-50.076,9.541-80.406C320.377,238.797,320.105,189.325,320.105,139.687z"/>
<g>
	<path fill="#FFFFFF" d="M128.063,465.216h9.725v49.843c0,19.781-9.725,25.861-22.544,25.861c-3.648,0-7.959-0.776-10.28-1.769
		l1.328-7.846c1.99,0.773,4.863,1.435,8.177,1.435c8.621,0,13.594-3.866,13.594-18.457V465.216z"/>
	<path fill="#FFFFFF" d="M191.056,526.885c0,4.642,0.221,9.173,0.776,12.819H183.1l-0.773-6.742h-0.331
		c-2.986,4.2-8.732,7.959-16.357,7.959c-10.832,0-16.357-7.625-16.357-15.363c0-12.929,11.494-20.002,32.158-19.892v-1.107
		c0-4.308-1.214-12.377-12.156-12.267c-5.083,0-10.277,1.438-14.036,3.98l-2.211-6.521c4.421-2.762,10.942-4.642,17.684-4.642
		c16.357,0,20.333,11.163,20.333,21.771V526.885z M181.662,512.407c-10.608-0.221-22.654,1.656-22.654,12.046
		c0,6.408,4.2,9.284,9.063,9.284c7.073,0,11.605-4.421,13.15-8.953c0.331-1.107,0.441-2.211,0.441-3.094V512.407z"/>
	<path fill="#FFFFFF" d="M209.623,486.215l10.498,29.948c1.769,4.973,3.207,9.394,4.311,13.815h0.331
		c1.217-4.421,2.766-8.842,4.531-13.815l10.39-29.948h10.167l-20.999,53.488h-9.284l-20.333-53.488H209.623z"/>
	<path fill="#FFFFFF" d="M296.152,526.885c0,4.642,0.221,9.173,0.776,12.819h-8.732l-0.773-6.742h-0.331
		c-2.986,4.2-8.732,7.959-16.357,7.959c-10.832,0-16.357-7.625-16.357-15.363c0-12.929,11.494-20.002,32.158-19.892v-1.107
		c0-4.308-1.214-12.377-12.156-12.267c-5.083,0-10.277,1.438-14.036,3.98l-2.211-6.521c4.421-2.762,10.942-4.642,17.684-4.642
		c16.357,0,20.333,11.163,20.333,21.771V526.885z M286.758,512.407c-10.608-0.221-22.654,1.656-22.654,12.046
		c0,6.408,4.2,9.284,9.063,9.284c7.073,0,11.605-4.421,13.15-8.953c0.331-1.107,0.441-2.211,0.441-3.094V512.407z"/>
	<path fill="#FFFFFF" d="M334.391,527.988c4.311,2.762,10.498,4.863,17.129,4.863c9.835,0,15.584-5.194,15.584-12.708
		c0-6.852-3.98-10.942-14.036-14.698c-12.156-4.421-19.671-10.832-19.671-21.219c0-11.605,9.615-20.226,24.092-20.226
		c7.515,0,13.15,1.769,16.357,3.648l-2.652,7.846c-2.321-1.438-7.294-3.535-14.036-3.535c-10.17,0-14.036,6.077-14.036,11.16
		c0,6.963,4.531,10.39,14.808,14.367c12.598,4.863,18.898,10.942,18.898,21.885c0,11.491-8.401,21.55-25.971,21.55
		c-7.183,0-15.029-2.211-19.009-4.863L334.391,527.988z"/>
	<path fill="#FFFFFF" d="M428.548,537.824c-2.542,1.217-8.18,3.097-15.363,3.097c-16.136,0-26.634-10.942-26.634-27.299
		c0-16.467,11.273-28.513,28.734-28.513c5.746,0,10.832,1.438,13.484,2.873l-2.211,7.404c-2.321-1.214-5.969-2.542-11.273-2.542
		c-12.267,0-18.898,9.173-18.898,20.226c0,12.377,7.956,20.002,18.567,20.002c5.525,0,9.173-1.324,11.936-2.542L428.548,537.824z"/>
	<path fill="#FFFFFF" d="M439.929,502.903c0-6.301-0.11-11.715-0.441-16.688h8.511l0.441,10.608h0.331
		c2.431-7.183,8.401-11.715,14.919-11.715c0.996,0,1.769,0.11,2.655,0.221v9.173c-0.996-0.221-1.99-0.221-3.317-0.221
		c-6.852,0-11.715,5.083-13.039,12.377c-0.221,1.328-0.331,2.983-0.331,4.531v28.513h-9.728V502.903z"/>
	<path fill="#FFFFFF" d="M487.34,471.183c0,3.317-2.321,5.969-6.19,5.969c-3.535,0-5.856-2.652-5.856-5.969
		c0-3.314,2.431-6.077,6.077-6.077C484.909,465.106,487.34,467.758,487.34,471.183z M476.508,539.703v-53.488h9.728v53.488H476.508z
		"/>
	<path fill="#FFFFFF" d="M502.366,503.675c0-6.852-0.221-12.377-0.441-17.46h8.621l0.552,9.17h0.221
		c3.869-6.518,10.28-10.277,19.009-10.277c13.042,0,22.768,10.942,22.768,27.078c0,19.229-11.825,28.734-24.423,28.734
		c-7.073,0-13.263-3.097-16.467-8.401h-0.224v29.068h-9.615V503.675z M511.981,517.932c0,1.438,0.113,2.762,0.445,3.98
		c1.766,6.742,7.625,11.384,14.588,11.384c10.277,0,16.246-8.401,16.246-20.667c0-10.611-5.638-19.784-15.915-19.784
		c-6.632,0-12.929,4.642-14.698,11.936c-0.331,1.217-0.665,2.655-0.665,3.869V517.932z"/>
	<path fill="#FFFFFF" d="M576.963,473.393v12.822h13.925v7.404h-13.925v28.844c0,6.632,1.879,10.387,7.294,10.387
		c2.655,0,4.2-0.221,5.638-0.662l0.441,7.404c-1.879,0.662-4.863,1.328-8.621,1.328c-4.531,0-8.177-1.548-10.498-4.09
		c-2.652-2.983-3.759-7.735-3.759-14.036v-29.175h-8.287v-7.404h8.287v-9.949L576.963,473.393z"/>
</g>
</svg>
