<?xml version="1.0" encoding="utf-8"?>
<!-- Generator: Adobe Illustrator 17.0.0, SVG Export Plug-In . SVG Version: 6.00 Build 0)  -->
<!DOCTYPE svg PUBLIC "-//W3C//DTD SVG 1.1//EN" "http://www.w3.org/Graphics/SVG/1.1/DTD/svg11.dtd">
<svg version="1.1" id="Layer_1" xmlns="http://www.w3.org/2000/svg" xmlns:xlink="http://www.w3.org/1999/xlink" x="0px" y="0px"
	 width="695.853px" height="694.286px" viewBox="0 0 695.853 694.286" enable-background="new 0 0 695.853 694.286"
	 xml:space="preserve">
<g>
	<path fill="#F79263" d="M453.563,192.337c-1.634-0.468-3.353-0.642-4.494-0.851c-4.2,0.273-7.761,0.726-11,2.52
		c-2.821,1.556-3.54,4.285-1.659,6.588c2.644,3.236,6.198,4.735,10.256,4.068c4.352-0.719,7.708-3.165,9.278-7.499
		C456.809,194.79,455.933,193.007,453.563,192.337z"/>
	<path fill="#F79263" d="M320.466,204.355c1.435-2.328,0.84-4.596-1.378-6.305c-3.459-2.665-7.489-3.25-11.677-3.271
		c-1.162,0-2.332-0.085-3.48,0.028c-0.836,0.081-1.666,0.383-2.47,0.666c-3.303,1.148-4.118,3.625-2.693,6.617
		c2.502,5.242,6.723,8.045,12.737,7.545C315.32,209.316,318.428,207.658,320.466,204.355z"/>
	<path fill="#F79263" d="M397.199,481.676c8.562-1.921,17.007-4.217,24.733-8.633c7.495-4.281,13.386-10.061,17.539-17.649
		c3.406-6.216,5.493-12.893,6.854-19.786c1.134-5.766,1.963-11.592,2.832-17.404c0.563-3.792,0.936-7.609,1.442-11.408
		c0.542-4.079,1.187-8.144,1.705-12.223c0.528-4.203,0.929-8.424,1.442-12.631l1.698-13.272c0.422-3.462,0.769-6.932,1.134-10.263
		c3.643,0.524,7.18,1.34,10.745,1.474c4.848,0.177,9.749,0.103,14.58-0.344c5.674-0.525,11.394-1.184,16.937-2.453
		c14.59-3.349,27.345-10.15,37.513-21.359c2.155-2.374,3.64-5.153,3.874-8.396h0c0.372-5.121-3.537-9.275-9.002-9.671
		c-5.472-0.4-10.696,1.116-16.026,1.861c-5.38,0.755-10.774,1.527-16.185,1.928c-3.381,0.252-6.833,0.032-10.217-0.337
		c-3.558-0.383-7.091-1.123-10.21-3.228c1.205-1.935,2.375-3.877,3.608-5.773c7.148-10.969,13.329-22.493,19.272-34.139
		c3.14-6.145,6.028-12.436,8.711-18.794c3.633-8.598,7.226-17.231,10.341-26.023c3.381-9.54,6.503-19.194,9.175-28.954
		c3.232-11.816,5.894-23.791,7.077-36.031c0.521-5.369,1.254-10.749,1.304-16.132c0.053-5.628-0.514-11.27-0.982-16.891
		c-0.376-4.522-1.737-8.796-3.643-12.925c-2.534-5.475-6.656-9.753-10.696-14.027c-3.275-3.466-6.985-6.539-10.611-9.65
		c-5.532-4.742-11.677-8.598-18.141-11.922c-8.651-4.451-17.752-7.659-27.239-9.866c-7.658-1.783-15.416-2.895-23.231-3.271
		c-6.181-0.298-12.411-0.039-18.595,0.315c-5.546,0.319-11.118,0.783-16.572,1.768c-7.325,1.325-14.555,3.193-21.817,4.869
		c-1.425,0.33-2.853,1.315-4.2,1.187c-2.814-0.266-5.553-1.24-8.36-1.623c-5.784-0.794-11.574-1.651-17.394-1.985
		c-4.841-0.28-9.732,0.004-14.583,0.312c-3.991,0.255-8.017,0.617-11.918,1.442c-10.281,2.18-19.949,5.989-28.795,11.762
		c-0.535,0.351-1.495,0.369-2.151,0.17c-6.528-1.984-12.974-4.271-19.555-6.035c-9.03-2.424-18.177-4.388-27.508-5.316
		c-4.334-0.429-8.654-1.219-12.992-1.308c-9.923-0.206-19.843-0.28-29.674,1.634c-6.624,1.29-13.123,2.941-19.276,5.684
		c-8.803,3.927-16.717,9.158-23.255,16.394c-3.983,4.409-7.428,9.154-10.203,14.374c-4.533,8.52-7.683,17.543-9.058,27.104
		c-0.992,6.911-1.992,13.85-2.364,20.807c-0.418,7.722-0.206,15.484,0.946,23.174c0.854,5.706,1.467,11.454,2.523,17.121
		c1.566,8.396,3.342,16.749,5.188,25.088c1.627,7.332,3.331,14.651,5.252,21.909c2.541,9.618,5.124,19.24,8.07,28.742
		c2.711,8.743,5.83,17.369,8.934,25.988c4.487,12.471,9.728,24.609,16.557,36.003c5.33,8.892,11.185,17.358,19.874,23.411
		c4.21,2.931,8.892,4.724,14.006,4.958c7.97,0.369,14.651-2.895,20.193-8.321c3.732-3.654,6.978-7.804,10.444-11.73
		c3.498-3.969,6.992-7.953,10.508-11.911c4.777-5.383,9.519-10.802,14.396-16.097c2.92-3.168,2.98-2.977,6.964-1.215
		c4.653,2.063,9.519,3.466,14.619,3.948c1.68,0.156,3.36,0.347,5.142,0.535l-4.274,5.497c-2.697,3.445-5.429,6.957-9.76,8.374
		c-4.377,1.428-8.842,2.608-13.329,3.647c-5.164,1.194-10.363,2.219-15.126,4.675c-6.893,3.548-9.083,10.919-4.512,16.752
		c1.907,2.435,4.795,4.288,7.563,5.812c6.826,3.753,14.442,4.947,22.065,5.56c4.65,0.372,9.381,0.05,14.052-0.305
		c5.957-0.45,11.709-2.045,17.004-4.795c4.522-2.346,8.785-5.195,13.123-7.797l0.021,0.326c0.121,8.527,0.181,17.054,0.369,25.58
		c0.153,6.936,0.383,13.871,0.698,20.807c0.248,5.461,0.578,10.926,1.06,16.373c0.436,4.898,0.982,9.799,1.74,14.658
		c1.588,10.221,6.025,19.251,12.581,27.129c6.868,8.254,15.955,12.808,26.601,13.772
		C384.895,483.261,391.139,483.037,397.199,481.676z M487.053,333.536c2.927,0.237,5.869,0.79,8.768,0.624
		c6.007-0.344,12.003-1.024,17.993-1.666h0c2.941-0.312,5.854-0.844,8.782-1.279l0.227,0.39c-2.743,1.846-5.479,3.71-8.24,5.536
		c-7.659,5.054-16.281,7.492-25.194,8.987c-3.782,0.638-7.644,0.886-11.483,1.077c-3.555,0.177-7.148,0.28-10.678-0.039
		c-2.874-0.259-5.699-1.134-8.509-1.875c-0.461-0.12-1.063-1.006-1.017-1.488c0.241-2.732,0.457-5.497,1.056-8.165
		c0.879-3.948,3.852-5.812,7.495-7.038c2.551-0.858,4.547-0.687,6.95,0.826C477.353,332.047,482.144,333.139,487.053,333.536z
		 M463.719,215.164c-0.425,4.944-0.776,9.923-0.666,14.874c0.11,4.869,0.829,9.725,1.304,14.583c0.34,3.487,0.833,6.96,1.042,10.455
		c0.333,5.709,0.79,11.44,0.645,17.146c-0.174,6.783-1.687,13.357-4.788,19.924c-1.482-3.133-2.676-5.933-4.097-8.615
		c-5.319-10.054-10.986-19.938-15.994-30.149c-3.696-7.542-6.79-15.409-9.746-23.28c-2.215-5.879-3.618-12.017-4.228-18.343
		c-0.4-4.15-0.096-8.116,1.038-12.085c1.52-5.323,5.245-8.548,10.136-10.561c4.409-1.811,9.044-2.576,13.807-2.491
		c4.224,0.078,8.449,0.227,12.673,0.344c1.343,0.039,2.187,0.471,1.988,2.073c-0.493,3.983-0.879,7.977-1.361,11.961v0
		C464.903,205.719,464.12,210.422,463.719,215.164z M419.53,86.841c5.504-0.518,11.043-1.109,16.557-0.992
		c9.353,0.195,18.645,1.116,27.817,3.253c9.399,2.186,18.393,5.397,26.704,10.217c5.242,3.044,10.107,6.755,14.991,10.373
		c5.801,4.295,10.519,9.725,14.888,15.402c2.718,3.526,3.788,7.892,4.185,12.23c0.532,5.745,0.851,11.55,0.684,17.309
		c-0.156,5.429-0.854,10.873-1.691,16.253c-1.074,6.882-2.282,13.765-3.863,20.544c-3.523,15.101-8.077,29.908-13.832,44.31
		c-3.693,9.25-7.541,18.45-11.649,27.522c-6.386,14.087-13.761,27.66-22.05,40.731l-0.982,1.758l-0.975-0.755l-0.642-0.681
		c1.598-3.484,3.289-6.857,4.703-10.338c2.013-4.944,3.363-10.097,3.824-15.42c0.386-4.419,0.78-8.874,0.656-13.3
		c-0.152-5.39-0.815-10.77-1.308-16.15c-0.436-4.745-1.077-9.476-1.375-14.229c-0.294-4.678-0.563-9.395-0.305-14.062
		c0.273-4.905,1.187-9.774,1.818-14.658c0.422-3.239,0.936-6.471,1.223-9.721c0.344-3.905,0.305-7.846,0.762-11.73
		c0.659-5.546-0.815-10.664-2.661-15.732c-4.171-11.5-9.834-22.249-16.922-32.204c-3.664-5.146-7.63-10.093-11.727-14.899
		c-8.105-9.505-17.546-17.536-28.082-24.209c-5.011-3.175-10.324-5.869-15.71-8.899C409.589,88.106,414.544,87.309,419.53,86.841z
		 M271.19,316.603c-5.043,5.635-10.125,11.238-15.143,16.901c-3.941,4.444-7.761,8.995-11.72,13.424
		c-2.491,2.789-4.912,5.716-7.775,8.087c-6.684,5.532-11.777,4.749-18.354-0.294c-5.213-3.994-9.055-9.218-12.432-14.722
		c-3.175-5.185-6.206-10.511-8.708-16.047c-3.842-8.498-7.488-17.11-10.643-25.885c-3.856-10.752-7.414-21.636-10.568-32.619
		c-3.296-11.461-6.074-23.082-8.856-34.685c-1.946-8.105-3.629-16.277-5.199-24.467c-1.152-6.007-1.85-12.103-2.895-18.134
		c-1.403-8.102-1.247-16.281-0.936-24.414c0.358-9.278,1.68-18.471,4.455-27.405c2.35-7.573,5.621-14.675,10.483-20.955
		c4.402-5.688,9.657-10.43,15.916-14.098c6.971-4.086,14.498-6.595,22.344-8.087c4.611-0.879,9.353-1.056,14.038-1.503
		c1.893-0.181,3.806-0.436,5.692-0.322c6.145,0.365,12.294,0.737,18.421,1.372c12.957,1.343,25.555,4.419,37.952,8.357l1.13,0.4
		c-3.81,4.869-7.776,9.526-11.27,14.509c-5.1,7.265-8.711,15.335-11.855,23.62c-3.31,8.739-5.638,17.755-7.393,26.902
		c-1.046,5.45-1.659,10.997-2.151,16.529c-0.546,6.142-1.258,12.343-0.96,18.471c0.493,10.292,1.187,20.576,0.875,30.875
		c-0.188,6.266-0.723,12.531-1.368,18.769c-0.663,6.439-1.432,12.882-0.978,19.35c0.482,6.882,2.102,13.538,4.799,19.924l0,0
		c3.388,8.017,8.243,14.998,14.513,21.019l1.715,1.506C273.282,314.185,272.257,315.412,271.19,316.603z M287.78,307.006
		c-10.827-7.177-17.433-17.348-20.551-29.776c-0.982-3.919-1.396-8.062-1.421-12.11c-0.025-3.927,0.794-7.857,1.219-11.791
		c0.277-2.569,0.649-5.135,0.748-7.715c0.301-7.921,0.638-15.845,0.673-23.769c0.025-5.599-0.121-11.234-0.787-16.781
		c-0.316-2.619,0.687-3.551,2.513-4.706c9.073-5.741,18.811-9.661,29.45-11.337c4.355-0.688,8.637-0.73,12.946,0.33
		c7.074,1.74,11.202,6.461,12.84,13.24c1.51,6.266,2.583,12.652,3.526,19.035c0.734,4.993,1.138,10.051,1.389,15.094
		c0.223,4.54,0.315,9.122-0.014,13.648c-0.663,9.179-2.654,18.117-6.298,26.601c-4.494,10.462-9.133,20.86-12.539,31.75
		c-0.542,1.737-1.031,3.491-1.581,5.348C301.807,313.643,294.439,311.418,287.78,307.006z M334.688,345.464
		c-4.614,6.159-10.04,11.454-17.092,14.796c-5.124,2.431-10.533,3.668-16.21,4.15c-7.864,0.666-15.434-0.507-22.876-2.863
		c-1.51-0.478-2.913-1.315-4.363-1.985l0.06-0.631c4.88-1.138,9.767-2.236,14.633-3.42c6.12-1.489,12.209-3.062,17.433-6.858
		c3.59-2.612,6.198-6.117,8.98-9.487c2.41-2.917,4.82-5.876,7.559-8.463c2.208-2.08,5.277-1.97,7.598-0.074
		c3.431,2.8,5.808,6.28,5.493,10.961C335.811,342.916,335.46,344.437,334.688,345.464z M368.947,466.604
		c-4.394-2.474-7.729-6.06-10.295-10.281c-2.981-4.908-5.607-10.044-6.524-15.813c-0.649-4.072-1.201-8.165-1.598-12.266
		c-0.567-5.78-0.985-11.578-1.4-17.373c-0.198-2.768-0.337-5.543-0.361-8.314c-0.142-16.958-0.269-33.919-0.344-50.88
		c-0.018-3.64,0.365-7.29,0.298-10.93c-0.121-6.567-2.484-12.241-6.989-17.103c-3.378-3.654-7.495-5.805-12.244-6.925
		c-0.61-0.145-1.255-0.163-1.886-0.174c-1.616-0.021-3.232-0.007-5.224-0.007c1.29-3.831,2.339-7.439,3.703-10.922
		c4.132-10.547,8.555-20.98,12.524-31.587c2.183-5.833,3.487-11.986,3.827-18.237c0.4-7.336,0.773-14.69,0.642-22.029
		c-0.092-5.022-0.893-10.054-1.676-15.033c-0.999-6.375-2.027-12.769-3.53-19.038c-2.176-9.083-7.184-16.26-15.742-20.48
		c-4.462-2.197-9.264-3.19-14.282-3.342c-11.812-0.358-22.802,2.764-33.409,7.616l-3.136,1.407
		c-0.964,0.468-1.907,0.992-3.214,1.673c0.152-1.949,0.174-3.689,0.436-5.39c0.751-4.862,1.489-9.728,2.431-14.552
		c1.882-9.675,4.635-19.088,8.647-28.132c2.924-6.592,6.344-12.879,10.582-18.701c3.611-4.951,7.737-9.399,12.464-13.361
		c8.467-7.095,18.198-11.475,28.837-13.938c7.049-1.634,14.24-1.96,21.476-1.882c8.484,0.092,16.809,1.216,25.08,3.051
		c8.608,1.91,16.813,4.905,24.691,8.778c6.606,3.25,12.797,7.222,18.673,11.67c5.975,4.519,11.429,9.632,16.465,15.143
		c6.797,7.442,12.9,15.469,17.67,24.372c3.381,6.308,6.269,12.879,9.36,19.339l0.167,0.84c-4.969,0-9.778-0.213-14.566,0.046
		c-7.715,0.418-15.246,1.751-22.004,5.879c-7.286,4.451-11.621,10.94-13.318,19.237c-1.06,5.195-0.921,10.433-0.376,15.679
		c1.29,12.393,5.383,23.978,10.575,35.167c4.129,8.906,8.693,17.613,13.177,26.349c2.569,5.008,5.56,9.803,7.999,14.867
		c2.573,5.344,5.135,10.664,8.7,15.427c2.272,3.034,4.639,5.996,6.96,8.995h0l0.425,0.659c-2.506,1.184-5.054,2.105-7.311,3.505
		c-5.397,3.349-8.275,8.53-9.377,14.619c-0.599,3.321-0.475,6.765-0.78,10.15c-0.393,4.458-0.886,8.909-1.343,13.361
		c-0.354,3.484-0.695,6.975-1.095,10.451c-0.521,4.497-1.099,8.987-1.645,13.481c-0.383,3.129-0.744,6.266-1.141,9.395
		c-0.539,4.2-1.102,8.399-1.659,12.602c-0.489,3.693-0.953,7.389-1.488,11.075c-1.432,9.845-2.509,19.768-5.968,29.191
		c-1.783,4.859-4.426,9.26-8.151,12.872c-3.976,3.845-8.711,6.638-13.952,8.343c-5.316,1.733-10.692,3.413-16.168,4.458
		C384.455,471.158,376.414,470.807,368.947,466.604z"/>
	<path fill="#F79263" d="M681.746,0H14.107C6.316,0,0,6.316,0,14.107v666.072c0,7.791,6.316,14.107,14.107,14.107h667.64
		c7.791,0,14.107-6.316,14.107-14.107V14.107C695.853,6.316,689.537,0,681.746,0z M352.528,484.387
		c-6.088-5.036-10.65-11.142-13.821-18.376c-3.232-7.371-5.773-14.973-7.648-22.78c-0.932-3.866-1.428-7.861-1.907-11.823
		c-0.687-5.748-1.212-11.518-1.747-17.284c-0.209-2.236-0.298-4.49-0.365-6.737l-0.369-14.764c-0.081-2.708-0.259-5.415-0.397-8.226
		c-2.64,0.89-5.174,1.843-7.768,2.594c-4.951,1.432-9.983,2.442-15.161,2.583c-2.658,0.074-5.323,0.454-7.96,0.301
		c-10.894-0.627-21.618-2.165-31.46-7.297c-3.647-1.903-7.134-4.104-9.739-7.403c-0.684-0.872-1.318-0.51-1.896-0.035
		c-5.036,4.125-10.699,6.879-17.096,8.19c-5.518,1.13-10.997,0.96-16.387-0.457c-6.861-1.807-12.755-5.422-18.049-10.125
		c-8.034-7.138-14.023-15.813-19.265-25.077c-6.06-10.699-11.114-21.863-15.335-33.398c-3.048-8.339-6.12-16.678-8.803-25.137
		c-2.888-9.104-5.405-18.329-7.96-27.536c-1.673-6.028-3.271-12.089-4.675-18.184c-1.928-8.374-3.739-16.784-5.479-25.201
		c-1.247-6.025-2.47-12.071-3.501-18.134c-0.652-3.831-1.088-7.722-1.581-11.582c-0.206-1.605,2.601-3.204-0.943-4.806v-24.077
		c3.544-1.715,0.691-3.438,0.95-5.16c0.826-5.532,1.588-11.132,2.793-16.578c2.226-10.054,5.805-19.626,11.025-28.568
		c4.954-8.474,11.114-15.895,18.794-21.973c7.566-5.989,15.958-10.55,25.113-13.697c8.243-2.835,16.724-4.593,25.368-5.362
		c5.426-0.482,10.915-0.485,16.366-0.369c5.578,0.117,11.171,0.464,16.72,1.042c5.791,0.606,11.621,1.237,17.291,2.506
		c9.097,2.038,18.117,4.465,27.072,7.049c2.665,0.769,4.706,1.053,7.283-0.457c6.017-3.53,12.588-5.858,19.304-7.765
		c8.024-2.279,16.228-3.643,24.517-3.728c8.651-0.092,17.316,0.542,25.97,0.975c2.272,0.114,4.504,0.723,6.776,0.932
		c2.963,0.273,5.812,0.883,8.931-0.085c8.339-2.584,16.926-4.221,25.616-5.188c1.322-0.149,2.622-0.826,3.934-0.826h36.294
		c1.928,0,3.859,0.805,5.787,1.194c5.358,1.07,10.77,2.073,16.061,3.423c8.75,2.229,17.142,5.529,25.127,9.746
		c7.028,3.711,13.793,7.889,19.811,13.123c4.221,3.668,8.477,7.34,12.347,11.369c4.834,5.032,9.427,10.331,12.39,16.788
		c2.247,4.901,3.87,9.994,4.402,15.367c0.471,4.689,0.978,9.399,1.007,14.101c0.032,5.897-0.252,11.812-0.663,17.702
		c-1.024,14.746-4.285,29.117-8.094,43.332c-3.976,14.846-8.779,29.454-14.789,43.623c-3.633,8.551-7.148,17.174-11.256,25.495
		c-5.358,10.848-11.259,21.427-16.922,32.122l0.074,0.393c3.034-0.312,6.113-0.521,9.15-0.975c4.394-0.655,8.747-1.648,13.152-2.208
		c3.647-0.464,7.361-0.847,11.018-0.681c10.104,0.457,18.79,7.23,20.385,17.571c1.099,7.116-1.06,13.634-5.613,19.272
		c-5.238,6.464-11.692,11.482-18.772,15.76c-6.078,3.675-12.393,6.9-19.279,8.7c-5.826,1.528-11.741,2.786-17.684,3.782
		c-4.175,0.702-8.456,0.882-12.698,1.074c-3.785,0.17-7.587,0.071-11.383,0.014c-1.077-0.018-1.609,0.347-1.708,1.403
		c-0.106,1.141-0.29,2.279-0.337,3.423c-0.149,3.757-0.138,7.524-0.386,11.273c-0.358,5.387-0.865,10.759-1.361,16.136
		c-0.305,3.31-0.595,6.627-1.081,9.912c-0.734,4.965-1.329,9.98-2.534,14.842c-1.524,6.17-3.441,12.258-5.475,18.287
		c-2.467,7.297-6.308,13.907-10.986,20.016c-8.218,10.72-19.219,17.355-31.945,21.196c-6.255,1.885-12.666,3.353-19.091,4.519
		c-4.054,0.737-8.289,0.939-12.408,0.723C369.617,493.669,360.395,490.894,352.528,484.387z M303.473,585.678
		c-6.895,0-14.426-2.015-18.249-4.561l2.338-7.744c4.137,2.546,10.183,4.667,16.548,4.667c9.441,0,14.957-4.986,14.957-12.199
		c0-6.683-3.819-10.501-13.472-14.214c-11.668-4.137-18.881-10.183-18.881-20.26c0-11.138,9.228-19.412,23.124-19.412
		c7.319,0,12.623,1.697,15.805,3.5l-2.546,7.531c-2.334-1.273-7.107-3.394-13.578-3.394c-9.759,0-13.472,5.834-13.472,10.714
		c0,6.683,4.345,9.971,14.214,13.79c12.093,4.671,18.245,10.501,18.245,21.003C328.507,576.132,320.339,585.678,303.473,585.678z
		 M400.108,595.119c-9.653-2.546-19.094-5.41-27.367-8.274c-1.485-0.53-2.97-1.061-4.349-1.061
		c-16.972-0.636-31.504-13.153-31.504-36.172c0-22.912,14.002-37.657,33.308-37.657c19.412,0,32.039,15.063,32.039,36.172
		c0,18.351-8.486,30.125-20.366,34.263v0.424c7.107,1.803,14.851,3.501,20.897,4.561L400.108,595.119z M453.994,584.618h-39.782
		v-71.495h9.233v63.751h30.55V584.618z"/>
	<path fill="#F79263" d="M392.47,548.552c0-14.32-7.421-29.069-22.594-29.069c-15.593,0-23.231,14.426-23.125,29.918
		c-0.106,15.169,8.274,28.852,22.7,28.852C384.2,578.253,392.47,564.888,392.47,548.552z"/>
</g>
</svg>
